<svg width="191" height="56" viewBox="0 0 191 56" fill="none" xmlns="http://www.w3.org/2000/svg">
<g filter="url(#filter0_d)">
<path d="M34.3447 36H26.4346V21.7422H11.9326V36H4.04688V0.990234H11.9326V14.9551H26.4346V0.990234H34.3447V36ZM71.7471 36H62.6895L57.2451 26.9912C56.8382 26.3076 56.4476 25.6973 56.0732 25.1602C55.6989 24.623 55.3164 24.1673 54.9258 23.793C54.5514 23.4023 54.1527 23.1094 53.7295 22.9141C53.3226 22.7025 52.875 22.5967 52.3867 22.5967H50.2627V36H42.377V0.990234H54.877C63.373 0.990234 67.6211 4.16406 67.6211 10.5117C67.6211 11.7324 67.4339 12.8636 67.0596 13.9053C66.6852 14.9307 66.1562 15.8584 65.4727 16.6885C64.7891 17.5186 63.959 18.2347 62.9824 18.8369C62.0221 19.4391 60.9479 19.9111 59.7598 20.2529V20.3506C60.2806 20.5133 60.7852 20.7819 61.2734 21.1562C61.7617 21.5143 62.2337 21.9375 62.6895 22.4258C63.1452 22.9141 63.5765 23.443 63.9834 24.0127C64.4066 24.5661 64.7891 25.1113 65.1309 25.6484L71.7471 36ZM50.2627 6.89844V16.6396H53.6807C55.3734 16.6396 56.7324 16.1514 57.7578 15.1748C58.7995 14.182 59.3203 12.9531 59.3203 11.4883C59.3203 8.42839 57.4893 6.89844 53.8271 6.89844H50.2627Z" fill="#FFBA0E"/>
<path d="M89.8379 36.6104C84.8249 36.6104 80.7396 34.9827 77.582 31.7275C74.4245 28.4561 72.8457 24.1999 72.8457 18.959C72.8457 13.4251 74.4489 8.94922 77.6553 5.53125C80.8617 2.11328 85.1097 0.404297 90.3994 0.404297C95.3962 0.404297 99.4326 2.04004 102.509 5.31152C105.601 8.58301 107.147 12.8962 107.147 18.251C107.147 23.7523 105.544 28.1875 102.338 31.5566C99.1478 34.9258 94.9811 36.6104 89.8379 36.6104ZM90.1797 7.19141C87.4128 7.19141 85.2155 8.23307 83.5879 10.3164C81.9603 12.3835 81.1465 15.126 81.1465 18.5439C81.1465 22.0107 81.9603 24.7533 83.5879 26.7715C85.2155 28.7897 87.3477 29.7988 89.9844 29.7988C92.7025 29.7988 94.859 28.8223 96.4541 26.8691C98.0492 24.8997 98.8467 22.1735 98.8467 18.6904C98.8467 15.0609 98.0736 12.237 96.5273 10.2188C94.9811 8.20052 92.8652 7.19141 90.1797 7.19141ZM120.038 33.0947H119.94V47.499H112.226V11H119.94V14.7598H120.038C121.942 11.8464 124.62 10.3896 128.07 10.3896C131.309 10.3896 133.808 11.5046 135.565 13.7344C137.34 15.9479 138.227 18.9671 138.227 22.792C138.227 26.9587 137.193 30.3034 135.126 32.8262C133.075 35.349 130.341 36.6104 126.923 36.6104C123.912 36.6104 121.617 35.4385 120.038 33.0947ZM119.818 22.8408V24.8428C119.818 26.568 120.274 27.9759 121.186 29.0664C122.097 30.1569 123.293 30.7021 124.774 30.7021C126.532 30.7021 127.891 30.0267 128.852 28.6758C129.828 27.3086 130.316 25.3799 130.316 22.8896C130.316 18.4951 128.607 16.2979 125.189 16.2979C123.611 16.2979 122.317 16.9001 121.308 18.1045C120.315 19.2926 119.818 20.8714 119.818 22.8408ZM165.692 25.6973H149.384C149.644 29.3268 151.931 31.1416 156.244 31.1416C158.995 31.1416 161.412 30.4906 163.495 29.1885V34.7549C161.184 35.9919 158.181 36.6104 154.486 36.6104C150.45 36.6104 147.317 35.4954 145.087 33.2656C142.857 31.0195 141.742 27.8945 141.742 23.8906C141.742 19.7402 142.947 16.4525 145.355 14.0273C147.764 11.6022 150.727 10.3896 154.242 10.3896C157.888 10.3896 160.704 11.472 162.689 13.6367C164.691 15.8014 165.692 18.7393 165.692 22.4502V25.6973ZM158.539 20.9609C158.539 17.3802 157.09 15.5898 154.193 15.5898C152.956 15.5898 151.882 16.1025 150.971 17.1279C150.076 18.1533 149.53 19.431 149.335 20.9609H158.539ZM186.591 17.958C185.663 17.4535 184.581 17.2012 183.344 17.2012C181.667 17.2012 180.357 17.8197 179.413 19.0566C178.469 20.2773 177.997 21.9456 177.997 24.0615V36H170.282V11H177.997V15.6387H178.095C179.315 12.2533 181.513 10.5605 184.687 10.5605C185.5 10.5605 186.135 10.6582 186.591 10.8535V17.958Z" fill="white"/>
</g>
<defs>
<filter id="filter0_d" x="0.046875" y="0.404297" width="190.544" height="55.0947" filterUnits="userSpaceOnUse" color-interpolation-filters="sRGB">
<feFlood flood-opacity="0" result="BackgroundImageFix"/>
<feColorMatrix in="SourceAlpha" type="matrix" values="0 0 0 0 0 0 0 0 0 0 0 0 0 0 0 0 0 0 127 0"/>
<feOffset dy="4"/>
<feGaussianBlur stdDeviation="2"/>
<feColorMatrix type="matrix" values="0 0 0 0 0 0 0 0 0 0 0 0 0 0 0 0 0 0 0.25 0"/>
<feBlend mode="normal" in2="BackgroundImageFix" result="effect1_dropShadow"/>
<feBlend mode="normal" in="SourceGraphic" in2="effect1_dropShadow" result="shape"/>
</filter>
</defs>
</svg>
