<svg width="9" height="15" viewBox="0 0 9 15" fill="none" xmlns="http://www.w3.org/2000/svg">
<path d="M7.4375 0.75C7.80208 0.75 8.11198 0.877604 8.36719 1.13281C8.6224 1.38802 8.75 1.69792 8.75 2.0625V13.4375C8.75 13.8021 8.6224 14.112 8.36719 14.3672C8.11198 14.6224 7.80208 14.75 7.4375 14.75H1.3125C0.947917 14.75 0.638021 14.6224 0.382812 14.3672C0.127604 14.112 0 13.8021 0 13.4375V2.0625C0 1.69792 0.127604 1.38802 0.382812 1.13281C0.638021 0.877604 0.947917 0.75 1.3125 0.75H7.4375ZM3.74609 13.6016C3.92839 13.7839 4.13802 13.875 4.375 13.875C4.61198 13.875 4.8125 13.7839 4.97656 13.6016C5.15885 13.4375 5.25 13.237 5.25 13C5.25 12.763 5.15885 12.5625 4.97656 12.3984C4.8125 12.2161 4.61198 12.125 4.375 12.125C4.13802 12.125 3.92839 12.2161 3.74609 12.3984C3.58203 12.5625 3.5 12.763 3.5 13C3.5 13.237 3.58203 13.4375 3.74609 13.6016ZM7.4375 10.9219V2.39062C7.4375 2.17188 7.32812 2.0625 7.10938 2.0625H1.64062C1.42188 2.0625 1.3125 2.17188 1.3125 2.39062V10.9219C1.3125 11.1406 1.42188 11.25 1.64062 11.25H7.10938C7.32812 11.25 7.4375 11.1406 7.4375 10.9219Z" fill="white"/>
</svg>
