<svg width="14" height="15" viewBox="0 0 14 15" fill="none" xmlns="http://www.w3.org/2000/svg">
<path d="M12.25 6C12.7422 6 13.1523 6.17318 13.4805 6.51953C13.8268 6.84766 14 7.25781 14 7.75V10.8125C14 10.9401 13.9544 11.0495 13.8633 11.1406C13.7904 11.2135 13.6901 11.25 13.5625 11.25H12.25V13.875C12.25 14.112 12.1589 14.3125 11.9766 14.4766C11.8125 14.6589 11.612 14.75 11.375 14.75H2.625C2.38802 14.75 2.17839 14.6589 1.99609 14.4766C1.83203 14.3125 1.75 14.112 1.75 13.875V11.25H0.4375C0.309896 11.25 0.200521 11.2135 0.109375 11.1406C0.0364583 11.0495 0 10.9401 0 10.8125V7.75C0 7.25781 0.164062 6.84766 0.492188 6.51953C0.838542 6.17318 1.25781 6 1.75 6V1.625C1.75 1.38802 1.83203 1.1875 1.99609 1.02344C2.17839 0.841146 2.38802 0.75 2.625 0.75H10.1445C10.3815 0.75 10.582 0.832031 10.7461 0.996094L12.0039 2.25391C12.168 2.41797 12.25 2.61849 12.25 2.85547V6ZM10.5 13V10.375H3.5V13H10.5ZM10.5 6.875V4.25H9.1875C9.0599 4.25 8.95052 4.21354 8.85938 4.14062C8.78646 4.04948 8.75 3.9401 8.75 3.8125V2.5H3.5V6.875H10.5ZM11.3477 8.65234C11.4753 8.77995 11.6302 8.84375 11.8125 8.84375C11.9948 8.84375 12.1497 8.77995 12.2773 8.65234C12.4049 8.52474 12.4688 8.36979 12.4688 8.1875C12.4688 8.00521 12.4049 7.85026 12.2773 7.72266C12.1497 7.59505 11.9948 7.53125 11.8125 7.53125C11.6302 7.53125 11.4753 7.59505 11.3477 7.72266C11.2201 7.85026 11.1562 8.00521 11.1562 8.1875C11.1562 8.36979 11.2201 8.52474 11.3477 8.65234Z" fill="white"/>
</svg>
