<svg width="14" height="14" viewBox="0 0 14 14" fill="none" xmlns="http://www.w3.org/2000/svg">
<path d="M10.0103 8.81095H9.37863L9.15475 8.59507C10.0315 7.57356 10.4784 6.25209 10.4016 4.9081C10.3248 3.56412 9.7303 2.30215 8.74288 1.38717C7.75546 0.472177 6.45195 -0.0246685 5.10602 0.000943184C3.76008 0.0265548 2.47641 0.572631 1.52452 1.52452C0.572631 2.47641 0.0265548 3.76008 0.000943184 5.10602C-0.0246685 6.45195 0.472177 7.75546 1.38717 8.74288C2.30215 9.7303 3.56412 10.3248 4.9081 10.4016C6.25209 10.4784 7.57356 10.0315 8.59507 9.15475L8.81095 9.37863V10.0103L12.8087 14L14 12.8087L10.0103 8.81095ZM5.21299 8.81095C4.50138 8.81095 3.80576 8.59993 3.21407 8.20458C2.62239 7.80923 2.16123 7.24731 1.88891 6.58987C1.61659 5.93243 1.54534 5.209 1.68417 4.51107C1.823 3.81313 2.16567 3.17204 2.66885 2.66885C3.17204 2.16567 3.81313 1.823 4.51107 1.68417C5.209 1.54534 5.93243 1.61659 6.58987 1.88891C7.24731 2.16123 7.80923 2.62239 8.20458 3.21407C8.59993 3.80576 8.81095 4.50138 8.81095 5.21299C8.81158 5.68566 8.71895 6.15381 8.53836 6.59062C8.35777 7.02743 8.09277 7.42431 7.75854 7.75854C7.42431 8.09277 7.02743 8.35777 6.59062 8.53836C6.15381 8.71895 5.68566 8.81158 5.21299 8.81095Z" fill="#858585"/>
</svg>
