<svg width="20" height="19" viewBox="0 0 20 19" fill="none" xmlns="http://www.w3.org/2000/svg">
<path d="M18 4.00001H14V2.00001C14.0009 1.73711 13.9498 1.47662 13.8497 1.23355C13.7495 0.990484 13.6022 0.769638 13.4163 0.583736C13.2304 0.397834 13.0095 0.250551 12.7665 0.150369C12.5234 0.0501873 12.2629 -0.000912688 12 1.23375e-05H8.00001C7.73711 -0.000912688 7.47662 0.0501873 7.23355 0.150369C6.99048 0.250551 6.76964 0.397834 6.58374 0.583736C6.39783 0.769638 6.25055 0.990484 6.15037 1.23355C6.05019 1.47662 5.99909 1.73711 6.00001 2.00001V4.00001H2.00001C1.73765 3.99934 1.47776 4.05069 1.23537 4.15109C0.992974 4.25149 0.772888 4.39894 0.587835 4.58492C0.402783 4.7709 0.256435 4.99173 0.157255 5.23462C0.0580742 5.47751 0.00802889 5.73766 0.0100123 6.00001L1.23375e-05 17C-0.000912688 17.2629 0.0501873 17.5234 0.150369 17.7665C0.250551 18.0095 0.397834 18.2304 0.583736 18.4163C0.769638 18.6022 0.990484 18.7495 1.23355 18.8497C1.47662 18.9498 1.73711 19.0009 2.00001 19H18C18.2629 19.0009 18.5234 18.9498 18.7665 18.8497C19.0095 18.7495 19.2304 18.6022 19.4163 18.4163C19.6022 18.2304 19.7495 18.0095 19.8497 17.7665C19.9498 17.5234 20.0009 17.2629 20 17V6.00001C20.0009 5.73711 19.9498 5.47662 19.8497 5.23355C19.7495 4.99048 19.6022 4.76964 19.4163 4.58374C19.2304 4.39783 19.0095 4.25055 18.7665 4.15037C18.5234 4.05019 18.2629 3.99909 18 4.00001ZM12 4.00001H8.00001V2.00001H12V4.00001Z" fill="#009EB5"/>
</svg>
